{
  "title": "Sehr geehrte Damen und Herren,",
  "body": "herzlichen Dank für Ihr Vertrauen in meine Leistungen. Bezugnehmend auf unser abgeschlossenen Projekteinzelvertrags, erlaube ich mir folgende Beträge in Rechnung zu stellen und freue mich auf eine gute Zusammenarbeit.",
  "sincerly": "Mit freundlichen Grüßen",
  "end": "Bitte überweisen Sie den Endbetrag unter Angabe der Rechnungsnummer auf das unten aufgelistete Geschäftskonto."
}